{
"request": {
	"user_name": "Pauline Kael",
	"ratings": [{
    "item_id": 3896198,
    "rating": 10
  },
  {
    "item_id": 3315342,
    "rating": 4
  },
  {
    "item_id": 2771200,
    "rating": 8
  },
  {
    "item_id": 1293847,
    "rating": 5
  },
  {
    "item_id": 4630562,
    "rating": 8
  },
  {
    "item_id": 4116284,
    "rating": 2
  }]
}
}